name_cht,name_eng,product3_id,product2_id,product1_id
本金履約保本型,PRINCIPAL PROTECTION,1,1,1
Voya 指數型 - 全球選擇,Voya Indexed UL - Global Choice,2,2,2
Voya 指數型 - 全球,Voya Indexed UL - Global,3,2,2
ING 保證死亡給付萬能壽險 II,ING Guaranteed Death Benefit Universal Life II,4,3,2
房產創富計畫-Colonial Chambers,"Apart-Hotel (Colonial Chambers, Liverpool)",5,4,3
Zurich 豐盛人生,Zurich-Vista,6,1,1
AIA 資本匯聚友邦投資計劃 ,AIA-Capital Saver,7,1,1
洽談中,洽談中,8,5,4
MM 財智之選靈活投資計劃,MM-Premier-Chooice Flexi (PCF),9,1,1
廣達麥迪遜投資房地產,Income Generating Homes Program,10,4,3
FPI 優裕計劃 ,FPI-Premier,11,1,1
FPI 卓裕計劃 ,FPI-Premier Ultra,12,1,1
FPI 萬全智富投資計劃 ,FPI-Zennith (Lump Sum),13,1,1
FPI 嶺豐投資計劃 ,FPI-Summit,14,1,1
FPI 靈活增長計劃,FPI-Flexible Growth Plan,15,1,1
FPI 萬全精英投資計劃 ,FPI-Elite (Lump Sum),16,1,1
FPI 靈活增長計劃,FPI-Flexible Growth Plan (Lump Sum),17,1,1
Aviva 環球儲蓄戶口 ,Aviva-Global Savings Account,18,1,1
房產創富計劃-貝爾樂頤康之家,Pueblo West Investors,19,6,3
房產創富計劃-雅硯居頤康之家,Cornerstone Longwood Senior Living,20,6,3
房產創富計劃-馬歇爾頤康之家,Villa Marche Stockton Senior Partners,21,6,3
房產創富計劃-朗遐居頤康之家,Casa de Rosa Senior Living,22,6,3
房產創富計劃-萊翡特頤康之家,Lafayette Senior Partners,23,6,3
房產創富計劃-品達歌德頤養園,Punta Gorda Senior Living,24,6,3
博諾前進美國優質銀拍屋計劃 II,"Panorama U.S. Housing II, LP",25,7,3
博諾前進美國優質銀拍屋計劃 I,"Panorama U.S. Housing I, LP",26,7,3
股票,IPO,27,8,1
SL 盈聚101投資計劃,SL-Harvest 101 Plan,28,1,1
A2A 土地創富計劃,A2A -Land Banking,29,9,3
土地創富計劃,Land Banking,30,9,3
A2A 項目發展計劃,A2A -Project Development Plan,31,10,3
Prudential US - Advantage UL,Prudential US - Advantage UL,32,2,2