type_id,type_name,status,work_days,ps
1,VOYA,體檢,0,基準日
1,VOYA,建議書,3,完成日-基準日
1,VOYA,申請書,3,完成日-基準日
1,VOYA,信託公證,3,完成日-基準日
1,VOYA,核保體位,30,完成日-基準日
1,VOYA,CPA  Letter,3,完成日-核保體位完成日期
1,VOYA,電話徵信,10,完成日-基準日
1,VOYA,匯款通知,30,完成日-核保體位完成日期
1,VOYA,保費匯款,30,完成日-匯款通知完成日期
1,VOYA,收款憑證交付,5,完成日-保費匯款完成日期
1,VOYA,保單收執,30,完成日-核保體位完成日期
1,VOYA,保單交付,10,完成日-保單收執完成日期
1,VOYA,Amendment Form,10,完成日-保單收執完成日期
1,VOYA,簽收單簽回,10,完成日-保單收執完成日期
1,VOYA,VOYA online,60,"完成日-Amendment Form/保費匯款 完成日取其晚"
2,Pru Life,體檢,,
2,Pru Life,建議書,,
2,Pru Life,通用申請書,,
2,Pru Life,正式申請書,,
2,Pru Life,信託公證,,
2,Pru Life,核保體位,,
2,Pru Life,體位確認書簽回,,
2,Pru Life,CPA  Letter,,
2,Pru Life,匯款通知,,
2,Pru Life,保費匯款,,
2,Pru Life,收款憑證交付,,
2,Pru Life,保單收執,,
2,Pru Life,保單交付,,
2,Pru Life,Amendment Form,,
2,Pru Life,簽收單簽回,,
2,Pru Life,Online Access,,
3,Colonial,匯款,0,基準日
3,Colonial,收款憑證交付,2,完成日-基準日
3,Colonial,股權合約,7,完成日-基準日
3,Colonial,股權分割申請書,7,完成日-基準日
3,Colonial,配息帳戶確認書,7,完成日-基準日
3,Colonial,公證證件收執,2,完成日-收款憑證交付
3,Colonial,身份公證,2,完成日-公證證件收執
3,Colonial,地址公證,2,完成日-公證證件收執
3,Colonial,公證證件返還,4,完成日-公證證件收執
3,Colonial,合約文件製作,60,完成日-股權分割申請書
3,Colonial,合約文件收執,10,完成日-合約文件製作
3,Colonial,合約文件交付,10,完成日-合約文件收執